{
  "version": "1.0.0",
  "description": "Backend data contract for Activity Log page – provides audit logs, stats, and filter options.",
  "endpoints": {
    "getLogs": {
      "method": "GET",
      "path": "/api/v1/activity-logs",
      "description": "Fetch paginated activity logs with filters and search.",
      "queryParams": {
        "page": "number (default 1)",
        "limit": "number (default 10)",
        "search": "string (optional, searches actor, action, module)",
        "type": "string (optional, values: create, update, delete, export, login, logout, view, system)",
        "status": "string (optional, values: success, failed)",
        "role": "string (optional, values: School Admin, Teacher, System)",
        "fromDate": "date (YYYY-MM-DD, optional)",
        "toDate": "date (YYYY-MM-DD, optional)"
      },
      "response": {
        "success": true,
        "data": {
          "logs": [
            {
              "id": "number (unique)",
              "actor": "string (user full name or 'System')",
              "role": "enum: School Admin, Teacher, System",
              "avatar": "string (initials – can be computed on frontend or provided)",
              "action": "string (description of the action)",
              "module": "enum: Auth, Attendance, Students, Reports, Notifications, Timetable, Settings, System, Parents, Billing",
              "type": "enum: create, update, delete, export, login, logout, view, system",
              "severity": "enum: info, warning, critical",
              "ip": "string (IPv4 or internal)",
              "device": "enum: desktop, mobile, server",
              "time": "datetime (ISO 8601, e.g., 2026-05-24T06:47:43)",
              "status": "enum: success, failed"
            }
          ],
          "pagination": {
            "currentPage": "number",
            "totalPages": "number",
            "totalItems": "number",
            "itemsPerPage": "number"
          }
        }
      },
      "exampleResponse": {
        "success": true,
        "data": {
          "logs": [
            {
              "id": 1,
              "actor": "Animesh Karan",
              "role": "School Admin",
              "avatar": "AK",
              "action": "Exported attendance report",
              "module": "Reports",
              "type": "export",
              "severity": "info",
              "ip": "192.168.1.12",
              "device": "desktop",
              "time": "2026-05-24T06:47:43",
              "status": "success"
            }
          ],
          "pagination": {
            "currentPage": 1,
            "totalPages": 5,
            "totalItems": 45,
            "itemsPerPage": 10
          }
        }
      }
    },
    "getStats": {
      "method": "GET",
      "path": "/api/v1/activity-logs/stats",
      "description": "Get dashboard statistics (total events, today's activity, unique users, critical actions).",
      "response": {
        "success": true,
        "data": {
          "totalEvents": "number",
          "todayEvents": "number (events from current day)",
          "uniqueActors": "number (distinct actor names)",
          "criticalCount": "number (severity = critical)",
          "failedCount": "number (status = failed)"
        }
      },
      "exampleResponse": {
        "success": true,
        "data": {
          "totalEvents": 20,
          "todayEvents": 12,
          "uniqueActors": 8,
          "criticalCount": 2,
          "failedCount": 3
        }
      }
    },
    "getFilterOptions": {
      "method": "GET",
      "path": "/api/v1/activity-logs/filter-options",
      "description": "Get available filter values for dropdowns (roles, types, modules, etc.) based on existing data.",
      "response": {
        "success": true,
        "data": {
          "types": ["create", "update", "delete", "export", "login", "logout", "view", "system"],
          "statuses": ["success", "failed"],
          "roles": ["School Admin", "Teacher", "System"],
          "modules": ["Auth", "Attendance", "Students", "Reports", "Notifications", "Timetable", "Settings", "System", "Parents", "Billing"]
        }
      }
    },
    "exportLogs": {
      "method": "GET",
      "path": "/api/v1/activity-logs/export",
      "description": "Export filtered logs as CSV (same query parameters as getLogs but no pagination).",
      "queryParams": "Same as getLogs (page & limit ignored)",
      "response": "CSV file download with columns: id, actor, role, action, module, type, severity, ip, device, time, status"
    }
  },
  "fieldNotes": {
    "avatar": "Backend may provide initials (e.g., first letters of actor name) or frontend can compute from actor field. Optional.",
    "device": "Can be derived from User-Agent on backend, or frontend can infer from IP/agent; but frontend expects one of desktop, mobile, server.",
    "time": "ISO 8601 string. Frontend uses relative time (e.g., '2h ago') and full locale string. Backend only needs to provide raw ISO.",
    "severity": "Determines dot color: info=blue, warning=amber, critical=red.",
    "status": "success/failed – affects success/failed badge and counts in stats."
  }
}