{
  "version": "1.0.0",
  "description": "Backend data contract for Delivery Log page – tracks notification delivery across channels (SMS, Email, Push, WhatsApp).",
  "endpoints": {
    "getStats": {
      "method": "GET",
      "path": "/api/v1/delivery/stats",
      "description": "Get summary statistics for the top cards (total sent, delivered, failed, delivery rate).",
      "response": {
        "success": true,
        "data": {
          "totalSent": "number",
          "delivered": "number",
          "failed": "number",
          "pending": "number",
          "deliveryRate": "number (percentage, 0-100)"
        }
      },
      "exampleResponse": {
        "success": true,
        "data": {
          "totalSent": 40,
          "delivered": 34,
          "failed": 3,
          "pending": 2,
          "deliveryRate": 85
        }
      }
    },
    "getDeliveryLogs": {
      "method": "GET",
      "path": "/api/v1/delivery/logs",
      "description": "Fetch paginated list of delivery logs with filtering, search, and sorting.",
      "queryParams": {
        "channel": "string (optional, values: All, SMS, Email, Push, WhatsApp)",
        "status": "string (optional, values: All, Delivered, Failed, Pending, Bounced)",
        "type": "string (optional, values: All, Announcement, Attendance, Fee Reminder, Emergency, General)",
        "search": "string (optional, searches recipient name, message, phone)",
        "page": "number (default 1)",
        "limit": "number (default 15)",
        "sortBy": "string (optional, default sentAt desc: sentAt, deliveredAt, status)",
        "sortOrder": "enum: asc, desc (default desc)"
      },
      "response": {
        "success": true,
        "data": {
          "logs": [
            {
              "id": "string",
              "recipient": "string (full name)",
              "phone": "string (formatted phone number)",
              "channel": "enum: SMS, Email, Push, WhatsApp",
              "type": "enum: Announcement, Attendance, Fee Reminder, Emergency, General",
              "message": "string (truncated for list view, full available in detail)",
              "status": "enum: Delivered, Failed, Pending, Bounced",
              "sentAt": "datetime (ISO 8601)",
              "deliveredAt": "datetime or null",
              "retries": "number (count of retry attempts, default 0)"
            }
          ],
          "pagination": {
            "currentPage": "number",
            "totalPages": "number",
            "totalItems": "number",
            "itemsPerPage": "number"
          }
        }
      },
      "exampleResponse": {
        "success": true,
        "data": {
          "logs": [
            {
              "id": "log-1",
              "recipient": "Mrs. Priya Sharma",
              "phone": "+91 9876543210",
              "channel": "SMS",
              "type": "Announcement",
              "message": "Annual Sports Day – 10th June 2026",
              "status": "Delivered",
              "sentAt": "2026-05-30T08:00:00Z",
              "deliveredAt": "2026-05-30T08:00:15Z",
              "retries": 0
            }
          ],
          "pagination": {
            "currentPage": 1,
            "totalPages": 3,
            "totalItems": 40,
            "itemsPerPage": 15
          }
        }
      }
    },
    "retryDelivery": {
      "method": "POST",
      "path": "/api/v1/delivery/logs/:id/retry",
      "description": "Retry sending a failed delivery (increment retry count and attempt redelivery).",
      "pathParams": { "id": "string" },
      "response": {
        "success": true,
        "data": {
          "id": "string",
          "status": "enum (new status, e.g., Pending or Delivered)",
          "retries": "number",
          "message": "string"
        }
      },
      "exampleResponse": {
        "success": true,
        "data": {
          "id": "log-3",
          "status": "Pending",
          "retries": 2,
          "message": "Retry queued"
        }
      }
    },
    "getFilterOptions": {
      "method": "GET",
      "path": "/api/v1/delivery/filter-options",
      "description": "Available filter values for dropdowns (channels, statuses, types) based on existing logs or system configuration.",
      "response": {
        "success": true,
        "data": {
          "channels": ["SMS", "Email", "Push", "WhatsApp"],
          "statuses": ["Delivered", "Failed", "Pending", "Bounced"],
          "types": ["Announcement", "Attendance", "Fee Reminder", "Emergency", "General"]
        }
      }
    },
    "exportLogs": {
      "method": "GET",
      "path": "/api/v1/delivery/logs/export",
      "description": "Export filtered logs as CSV (same query params as getDeliveryLogs, pagination ignored).",
      "queryParams": "Same as getDeliveryLogs (page/limit ignored)",
      "response": "CSV file download with columns: id, recipient, phone, channel, type, message, status, sentAt, deliveredAt, deliveryTimeMs, retries"
    }
  },
  "enums": {
    "Channel": ["SMS", "Email", "Push", "WhatsApp"],
    "Status": ["Delivered", "Failed", "Pending", "Bounced"],
    "Type": ["Announcement", "Attendance", "Fee Reminder", "Emergency", "General"]
  },
  "fieldNotes": {
    "deliveryTimeMs": "Not stored directly, can be computed as (deliveredAt - sentAt) in milliseconds for frontend to format as '2.3s' or '45ms'.",
    "retries": "Incremented each time a retry is attempted. The backend should handle actual redelivery logic.",
    "phone": "May be masked in UI, but backend stores full number for sending.",
    "sentAt": "ISO 8601 timestamp; frontend formats as relative time (e.g., '2m ago').",
    "deliveredAt": "null if not yet delivered or failed permanently; used to compute delivery duration."
  }
}