{
  "version": "1.0.0",
  "description": "Backend data contract for Scan Logs page – real‑time log of QR code scan events with stats, filtering, pagination, and export.",
  "endpoints": {
    "getStats": {
      "method": "GET",
      "path": "/api/scans/stats",
      "description": "Get summary statistics for today's scans (total, success, failed, average response time).",
      "queryParams": {
        "date": "string (optional, YYYY-MM-DD, default today)"
      },
      "response": {
        "success": true,
        "data": {
          "totalScans": "number",
          "successCount": "number",
          "failedCount": "number",
          "avgResponseTimeMs": "string (e.g., '142ms')"
        }
      },
      "exampleResponse": {
        "success": true,
        "data": {
          "totalScans": 312,
          "successCount": 289,
          "failedCount": 23,
          "avgResponseTimeMs": "142ms"
        }
      }
    },
    "getScans": {
      "method": "GET",
      "path": "/api/scans",
      "description": "Fetch paginated list of scan logs with filtering and search.",
      "queryParams": {
        "result": "enum: ALL, SUCCESS, INVALID, REVOKED, EXPIRED, RATE_LIMITED, ERROR (optional, default ALL)",
        "search": "string (optional, searches student name, city, token hash)",
        "page": "number (default 1)",
        "limit": "number (default 15, max 100)",
        "sortBy": "string (optional, default created_at desc: created_at, response_time_ms)",
        "sortOrder": "enum: asc, desc (default desc)"
      },
      "response": {
        "success": true,
        "data": {
          "scans": [
            {
              "id": "string",
              "token_hash": "string (original hash, frontend masks)",
              "result": "enum: SUCCESS, INVALID, REVOKED, EXPIRED, RATE_LIMITED, ERROR",
              "student_name": "string or null",
              "ip_address": "string",
              "ip_city": "string",
              "device": "string (user agent info, e.g., 'Chrome/Android')",
              "scan_purpose": "enum: EMERGENCY, REGISTRATION, UNKNOWN",
              "response_time_ms": "number (milliseconds)",
              "created_at": "datetime (ISO 8601)"
            }
          ],
          "pagination": {
            "currentPage": "number",
            "totalPages": "number",
            "totalItems": "number",
            "itemsPerPage": "number"
          }
        }
      },
      "exampleResponse": {
        "success": true,
        "data": {
          "scans": [
            {
              "id": "scan-1",
              "token_hash": "B1A2C3D4E5F6G7H8",
              "result": "SUCCESS",
              "student_name": "Aarav Sharma",
              "ip_address": "103.21.58.1",
              "ip_city": "Mumbai",
              "device": "Chrome/Android",
              "scan_purpose": "REGISTRATION",
              "response_time_ms": 142,
              "created_at": "2026-06-05T08:30:00Z"
            }
          ],
          "pagination": { "currentPage": 1, "totalPages": 3, "totalItems": 40, "itemsPerPage": 15 }
        }
      }
    },
    "getFilterOptions": {
      "method": "GET",
      "path": "/api/scans/filter-options",
      "description": "Available result types for filter dropdown (based on system configuration or actual data).",
      "response": {
        "success": true,
        "data": {
          "resultTypes": ["SUCCESS", "INVALID", "REVOKED", "EXPIRED", "RATE_LIMITED", "ERROR"]
        }
      }
    },
    "exportScans": {
      "method": "GET",
      "path": "/api/scans/export",
      "description": "Export filtered scan logs as CSV (same query params as getScans, pagination ignored).",
      "queryParams": "Same as getScans (page/limit ignored)",
      "response": "CSV file download with columns: id, token_hash, result, student_name, ip_address, ip_city, device, scan_purpose, response_time_ms, created_at"
    }
  },
  "enums": {
    "ScanResult": ["SUCCESS", "INVALID", "REVOKED", "EXPIRED", "RATE_LIMITED", "ERROR"],
    "ScanPurpose": ["EMERGENCY", "REGISTRATION", "UNKNOWN"]
  },
  "fieldNotes": {
    "token_hash": "Should be masked on frontend (first 4 + last 4 characters).",
    "student_name": "May be null if token is not assigned to a student.",
    "ip_city": "Derived from IP address using a geolocation service; optional but recommended for display.",
    "device": "Derived from User-Agent header; frontend uses the first part (e.g., 'Chrome') for icon and second part (e.g., 'Android') for OS.",
    "response_time_ms": "Time taken by the scanner to process the token; used for performance monitoring.",
    "avgResponseTimeMs": "Returned as string with unit (e.g., '142ms') to match UI display."
  }
}